ten_counter/simulation/qsim/ten_counter.msim.vcd
$comment
	File created using the following command:
		vcd file ten_counter.msim.vcd -direction
$end
$date
	Fri Feb 26 16:15:43 2016
$end
$version
	ModelSim Version 10.1d
$end
$timescale
	1ps
$end
$scope module ten_counter_vlg_vec_tst $end
$var reg 1 ! CLK $end
$var reg 1 " CLR $end
$var wire 1 # count [3] $end
$var wire 1 $ count [2] $end
$var wire 1 % count [1] $end
$var wire 1 & count [0] $end
$var wire 1 ' cout $end
$var wire 1 ( sampler $end
$scope module i1 $end
$var wire 1 ) gnd $end
$var wire 1 * vcc $end
$var wire 1 + unknown $end
$var tri1 1 , devclrn $end
$var tri1 1 - devpor $end
$var tri1 1 . devoe $end
$var wire 1 / CLK~input_o $end
$var wire 1 0 CLK~inputclkctrl_outclk $end
$var wire 1 1 cout~output_o $end
$var wire 1 2 count[3]~output_o $end
$var wire 1 3 count[2]~output_o $end
$var wire 1 4 count[1]~output_o $end
$var wire 1 5 count[0]~output_o $end
$var wire 1 6 inst~0_combout $end
$var wire 1 7 CLR~input_o $end
$var wire 1 8 inst~q $end
$var wire 1 9 inst2~0_combout $end
$var wire 1 : inst2~q $end
$var wire 1 ; inst17~combout $end
$var wire 1 < inst3~q $end
$var wire 1 = inst5~0_combout $end
$var wire 1 > inst1~q $end
$var wire 1 ? inst23~0_combout $end
$upscope $end
$upscope $end
$enddefinitions $end
#0
$dumpvars
0!
0"
0&
0%
0$
0#
1'
x(
0)
1*
x+
1,
1-
1.
0/
00
11
02
03
04
05
16
07
08
09
0:
0;
0<
0=
0>
1?
$end
#10000
1!
1/
10
0(
18
1=
06
15
1&
0?
01
0'
#20000
0!
0/
00
1(
#30000
1!
1/
10
0(
1>
08
16
14
05
1%
0&
#40000
0!
0/
00
1(
#50000
1!
1/
10
0(
18
0=
19
06
15
1&
#60000
0!
0/
00
1(
#70000
1!
1/
10
0(
0>
1:
08
16
04
13
05
0%
1$
0&
#80000
0!
0/
00
1(
#90000
1!
1/
10
0(
18
1=
06
15
1&
#100000
0!
0/
00
1(
#110000
1!
1/
10
0(
1>
08
16
14
05
1%
0&
#120000
0!
0/
00
1(
#130000
1!
1/
10
0(
18
0=
1;
09
06
15
1&
#140000
0!
0/
00
1(
#150000
1!
1/
10
0(
0>
1<
0:
08
16
04
12
03
05
0%
1#
0$
0&
#160000
0!
0/
00
1(
#170000
1!
1/
10
0(
18
0;
06
15
1&
#180000
0!
0/
00
1(
#190000
1!
1/
10
0(
0<
08
16
02
05
0#
0&
1?
11
1'
#200000
0!
0/
00
1(
#210000
1!
1/
10
0(
18
1=
06
15
1&
0?
01
0'
#220000
0!
0/
00
1(
#230000
1!
1/
10
0(
1>
08
16
14
05
1%
0&
#240000
0!
0/
00
1(
#250000
1!
1/
10
0(
18
0=
19
06
15
1&
#260000
0!
0/
00
1(
#270000
1!
1/
10
0(
0>
1:
08
16
04
13
05
0%
1$
0&
#280000
0!
0/
00
1(
#290000
1!
1/
10
0(
18
1=
06
15
1&
#300000
0!
0/
00
1(
#310000
1!
1/
10
0(
1>
08
16
14
05
1%
0&
#320000
0!
0/
00
1(
#330000
1!
1/
10
0(
18
0=
1;
09
06
15
1&
#340000
0!
0/
00
1(
#350000
1!
1/
10
0(
0>
1<
0:
08
16
04
12
03
05
0%
1#
0$
0&
#360000
0!
0/
00
1(
#370000
1!
1/
10
0(
18
0;
06
15
1&
#380000
0!
0/
00
1(
#390000
1!
1/
10
0(
0<
08
16
02
05
0#
0&
1?
11
1'
#400000
0!
0/
00
1(
#410000
1!
1/
10
0(
18
1=
06
15
1&
0?
01
0'
#420000
0!
0/
00
1(
#430000
1!
1/
10
0(
1>
08
16
14
05
1%
0&
#440000
0!
0/
00
1(
#450000
1!
1/
10
0(
18
0=
19
06
15
1&
#460000
0!
0/
00
1(
#470000
1!
1/
10
0(
0>
1:
08
16
04
13
05
0%
1$
0&
#480000
0!
0/
00
1(
#490000
1!
1/
10
0(
18
1=
06
15
1&
#500000
0!
0/
00
1(
#510000
1!
1/
10
0(
1>
08
16
14
05
1%
0&
#520000
0!
0/
00
1(
#530000
1!
1/
10
0(
18
0=
1;
09
06
15
1&
#540000
0!
0/
00
1(
#550000
1!
1/
10
0(
0>
1<
0:
08
16
04
12
03
05
0%
1#
0$
0&
#560000
0!
0/
00
1(
#570000
1!
1/
10
0(
18
0;
06
15
1&
#580000
0!
0/
00
1(
#590000
1!
1/
10
0(
0<
08
16
02
05
0#
0&
1?
11
1'
#600000
0!
0/
00
1(
#610000
1!
1/
10
0(
18
1=
06
15
1&
0?
01
0'
#620000
0!
0/
00
1(
#630000
1!
1/
10
0(
1>
08
16
14
05
1%
0&
#640000
0!
0/
00
1(
#650000
1!
1/
10
0(
18
0=
19
06
15
1&
#660000
0!
0/
00
1(
#670000
1!
1/
10
0(
0>
1:
08
16
04
13
05
0%
1$
0&
#680000
0!
0/
00
1(
#690000
1!
1/
10
0(
18
1=
06
15
1&
#700000
0!
0/
00
1(
#710000
1!
1/
10
0(
1>
08
16
14
05
1%
0&
#720000
0!
0/
00
1(
#730000
1!
1/
10
0(
18
0=
1;
09
06
15
1&
#740000
0!
0/
00
1(
#750000
1!
1/
10
0(
0>
1<
0:
08
16
04
12
03
05
0%
1#
0$
0&
#760000
0!
0/
00
1(
#770000
1!
1/
10
0(
18
0;
06
15
1&
#780000
0!
0/
00
1(
#790000
1!
1/
10
0(
0<
08
16
02
05
0#
0&
1?
11
1'
#800000
0!
0/
00
1(
#810000
1!
1/
10
0(
18
1=
06
15
1&
0?
01
0'
#820000
0!
0/
00
1(
#830000
1!
1/
10
0(
1>
08
16
14
05
1%
0&
#840000
0!
0/
00
1(
#850000
1!
1/
10
0(
18
0=
19
06
15
1&
#860000
0!
0/
00
1(
#870000
1!
1/
10
0(
0>
1:
08
16
04
13
05
0%
1$
0&
#880000
0!
0/
00
1(
#890000
1!
1/
10
0(
18
1=
06
15
1&
#900000
0!
0/
00
1(
#910000
1!
1/
10
0(
1>
08
16
14
05
1%
0&
#920000
0!
0/
00
1(
#930000
1!
1/
10
0(
18
0=
1;
09
06
15
1&
#940000
0!
0/
00
1(
#950000
1!
1/
10
0(
0>
1<
0:
08
16
04
12
03
05
0%
1#
0$
0&
#960000
0!
0/
00
1(
#970000
1!
1/
10
0(
18
0;
06
15
1&
#980000
0!
0/
00
1(
#990000
1!
1/
10
0(
0<
08
16
02
05
0#
0&
1?
11
1'
